2020-07-16 09:59:36.614 +05:30 [INF] URL ishttps://reqres.in/api/
2020-07-16 09:59:36.668 +05:30 [INF] URI is https://reqres.in/api//users
2020-07-16 09:59:37.445 +05:30 [INF] Executing the Get request
2020-07-16 09:59:37.447 +05:30 [INF] Response Recived from Get Request is {"page":1,"per_page":6,"total":12,"total_pages":2,"data":[{"id":1,"email":"george.bluth@reqres.in","first_name":"George","last_name":"Bluth","avatar":"https://s3.amazonaws.com/uifaces/faces/twitter/calebogden/128.jpg"},{"id":2,"email":"janet.weaver@reqres.in","first_name":"Janet","last_name":"Weaver","avatar":"https://s3.amazonaws.com/uifaces/faces/twitter/josephstein/128.jpg"},{"id":3,"email":"emma.wong@reqres.in","first_name":"Emma","last_name":"Wong","avatar":"https://s3.amazonaws.com/uifaces/faces/twitter/olegpogodaev/128.jpg"},{"id":4,"email":"eve.holt@reqres.in","first_name":"Eve","last_name":"Holt","avatar":"https://s3.amazonaws.com/uifaces/faces/twitter/marcoramires/128.jpg"},{"id":5,"email":"charles.morris@reqres.in","first_name":"Charles","last_name":"Morris","avatar":"https://s3.amazonaws.com/uifaces/faces/twitter/stephenmoon/128.jpg"},{"id":6,"email":"tracey.ramos@reqres.in","first_name":"Tracey","last_name":"Ramos","avatar":"https://s3.amazonaws.com/uifaces/faces/twitter/bigmancho/128.jpg"}],"ad":{"company":"StatusCode Weekly","url":"http://statuscode.org/","text":"A weekly newsletter focusing on software development, infrastructure, the server, performance, and the stack end of things."}}
2020-07-16 09:59:37.529 +05:30 [INF] per_page Recived from Get Request is 6
2020-07-16 09:59:37.529 +05:30 [INF] total_pages Recived from Get Request is 2
2020-07-16 09:59:37.532 +05:30 [INF] StatusCode Recived from Get Request is 200
2020-07-16 10:00:01.251 +05:30 [INF] URL ishttps://reqres.in/api/
2020-07-16 10:00:01.255 +05:30 [INF] URI is https://reqres.in/api//users
2020-07-16 10:00:01.375 +05:30 [INF] Executing the Get request
2020-07-16 10:00:01.375 +05:30 [INF] Response Recived from Get Request is {"page":1,"per_page":6,"total":12,"total_pages":2,"data":[{"id":1,"email":"george.bluth@reqres.in","first_name":"George","last_name":"Bluth","avatar":"https://s3.amazonaws.com/uifaces/faces/twitter/calebogden/128.jpg"},{"id":2,"email":"janet.weaver@reqres.in","first_name":"Janet","last_name":"Weaver","avatar":"https://s3.amazonaws.com/uifaces/faces/twitter/josephstein/128.jpg"},{"id":3,"email":"emma.wong@reqres.in","first_name":"Emma","last_name":"Wong","avatar":"https://s3.amazonaws.com/uifaces/faces/twitter/olegpogodaev/128.jpg"},{"id":4,"email":"eve.holt@reqres.in","first_name":"Eve","last_name":"Holt","avatar":"https://s3.amazonaws.com/uifaces/faces/twitter/marcoramires/128.jpg"},{"id":5,"email":"charles.morris@reqres.in","first_name":"Charles","last_name":"Morris","avatar":"https://s3.amazonaws.com/uifaces/faces/twitter/stephenmoon/128.jpg"},{"id":6,"email":"tracey.ramos@reqres.in","first_name":"Tracey","last_name":"Ramos","avatar":"https://s3.amazonaws.com/uifaces/faces/twitter/bigmancho/128.jpg"}],"ad":{"company":"StatusCode Weekly","url":"http://statuscode.org/","text":"A weekly newsletter focusing on software development, infrastructure, the server, performance, and the stack end of things."}}
2020-07-16 10:00:01.377 +05:30 [INF] per_page Recived from Get Request is 6
2020-07-16 10:00:01.377 +05:30 [INF] total_pages Recived from Get Request is 2
2020-07-16 10:00:01.377 +05:30 [INF] StatusCode Recived from Get Request is 200
2020-07-16 10:00:07.051 +05:30 [INF] URL ishttps://reqres.in/api/
2020-07-16 10:00:07.066 +05:30 [INF] URI is https://reqres.in/api//users
2020-07-16 10:00:07.158 +05:30 [INF] Executing the Get request
2020-07-16 10:00:07.158 +05:30 [INF] Response Recived from Get Request is {"page":1,"per_page":6,"total":12,"total_pages":2,"data":[{"id":1,"email":"george.bluth@reqres.in","first_name":"George","last_name":"Bluth","avatar":"https://s3.amazonaws.com/uifaces/faces/twitter/calebogden/128.jpg"},{"id":2,"email":"janet.weaver@reqres.in","first_name":"Janet","last_name":"Weaver","avatar":"https://s3.amazonaws.com/uifaces/faces/twitter/josephstein/128.jpg"},{"id":3,"email":"emma.wong@reqres.in","first_name":"Emma","last_name":"Wong","avatar":"https://s3.amazonaws.com/uifaces/faces/twitter/olegpogodaev/128.jpg"},{"id":4,"email":"eve.holt@reqres.in","first_name":"Eve","last_name":"Holt","avatar":"https://s3.amazonaws.com/uifaces/faces/twitter/marcoramires/128.jpg"},{"id":5,"email":"charles.morris@reqres.in","first_name":"Charles","last_name":"Morris","avatar":"https://s3.amazonaws.com/uifaces/faces/twitter/stephenmoon/128.jpg"},{"id":6,"email":"tracey.ramos@reqres.in","first_name":"Tracey","last_name":"Ramos","avatar":"https://s3.amazonaws.com/uifaces/faces/twitter/bigmancho/128.jpg"}],"ad":{"company":"StatusCode Weekly","url":"http://statuscode.org/","text":"A weekly newsletter focusing on software development, infrastructure, the server, performance, and the stack end of things."}}
2020-07-16 10:00:07.158 +05:30 [INF] per_page Recived from Get Request is 6
2020-07-16 10:00:07.160 +05:30 [INF] total_pages Recived from Get Request is 2
2020-07-16 10:00:07.160 +05:30 [INF] StatusCode Recived from Get Request is 200
